"CZAS";"SO2 Dwutlenek siarki poz. dop.: 350 [µg/m3]";"NO2 Dwutlenek azotu poz. dop.: 200 [µg/m3]";"NOx Tlenki azotu  [µg/m3]";"NO Tlenek azotu  [µg/m3]";"O3 Ozon  [µg/m3]";"O3 Ozon 8h poz. doc.: 120 [µg/m3]";"CO Tlenek węgla  [µg/m3]";"CO Tlenek węgla 8h poz. dop.: 10000 [µg/m3]";"PM10 Pył zawieszony PM10  [µg/m3]"
"1:00";"13.2";"14";"15";"1";"24";"16";"336";"530";"21"
"2:00";"15.1";"17";"18";"1";"20";"18";"346";"488";"24"
"3:00";"15.0";"19";"20";"1";"17";"19";"351";"435";"31"
"4:00";"13.2";"20";"21";"1";"15";"21";"353";"379";"29"
"5:00";"13.2";"23";"26";"2";"9";"20";"367";"352";"31"
"6:00";"14.6";"27";"32";"3";"6";"17";"389";"357";"31"
"7:00";"18.8";"26";"35";"5";"6";"15";"426";"364";"40"
"8:00";"16.2";"24";"32";"5";"9";"13";"409";"372";"42"
"9:00";"18.5";"27";"41";"9";"10";"11";"385";"378";"42"
"10:00";"29.6";"25";"39";"9";"16";"11";"361";"380";"47"
"11:00";"15.1";"19";"28";"5";"25";"12";"323";"376";"31"
"12:00";"13.8";"19";"27";"6";"24";"13";"330";"374";"35"
"13:00";"14.3";"18";"25";"5";"28";"15";"305";"366";"37"
"14:00";"9.4";"12";"16";"2";"36";"19";"279";"352";"25"
"15:00";"9.0";"16";"20";"2";"32";"23";"301";"337";"29"
"16:00";"19.3";"20";"23";"2";"30";"25";"309";"324";"38"
"17:00";"20.5";"35";"43";"5";"14";"26";"426";"329";"51"
"18:00";"18.4";"41";"57";"10";"6";"24";"599";"359";"67"
"19:00";"20.1";"41";"61";"13";"5";"22";"634";"398";"77"
"20:00";"17.1";"35";"48";"9";"5";"20";"627";"435";"69"
"21:00";"16.4";"32";"41";"6";"8";"17";"592";"471";"58"
"22:00";"14.3";"25";"30";"3";"12";"14";"600";"511";"57"
"23:00";"14.0";"24";"28";"3";"12";"11";"540";"541";"54"
"24:00";"12.0";"20";"22";"2";"18";"10";"448";"558";"37"
"wartość średnia";"15.9 (poz. dop.: 125 µg/m3)";"24";"31";"5";"16";"17";"418";"407";"42 (poz. dop.: 50 µg/m3)"
"minimum";"9.0";"12";"15";"1";"5";"10";"279";"324";"21"
"maksimum";"29.6";"41";"61";"13";"36";"26 (poz. doc.: 120 µg/m3)";"634";"558 (poz. dop.: 10000 µg/m3)";"77"