"CZAS";"SO2 Dwutlenek siarki poz. dop.: 350 [µg/m3]";"NO2 Dwutlenek azotu poz. dop.: 200 [µg/m3]";"NOx Tlenki azotu  [µg/m3]";"NO Tlenek azotu  [µg/m3]";"O3 Ozon  [µg/m3]";"O3 Ozon 8h poz. doc.: 120 [µg/m3]";"CO Tlenek węgla  [µg/m3]";"CO Tlenek węgla 8h poz. dop.: 10000 [µg/m3]";"PM10 Pył zawieszony PM10  [µg/m3]"
"1:00";"11,9";"21";"24";"2";"12";"8";"428";"491";"32"
"2:00";"9,7";"20";"22";"2";"11";"9";"508";"490";"34"
"3:00";"10,8";"23";"27";"3";"7";"9";"531";"489";"29"
"4:00";"11,3";"23";"26";"2";"10";"10";"539";"490";"32"
"5:00";"12,6";"24";"28";"2";"10";"10";"551";"491";"29"
"6:00";"13,4";"23";"28";"3";"8";"10";"579";"506";"39"
"7:00";"15,4";"25";"32";"4";"6";"10";"639";"526";"43"
"8:00";"14,4";"24";"30";"4";"8";"9";"688";"558";"39"
"9:00";"15,8";"22";"31";"6";"11";"9";"681";"589";"43"
"10:00";"18,7";"22";"30";"5";"14";"9";"633";"605";"49"
"11:00";"20,6";"23";"33";"6";"14";"10";"629";"617";"56"
"12:00";"22,9";"25";"38";"8";"14";"11";"641";"630";"53"
"13:00";"23,7";"29";"43";"9";"14";"11";"661";"644";"70"
"14:00";"23,5";"29";"41";"7";"14";"12";"687";"657";"71"
"15:00";"23,4";"32";"45";"8";"13";"13";"696";"665";"63"
"16:00";"25,7";"34";"45";"7";"12";"13";"720";"669";"78"
"17:00";"24,1";"28";"34";"4";"19";"14";"625";"662";"65"
"18:00";"25,9";"28";"34";"4";"16";"15";"629";"661";"61"
"19:00";"26,5";"28";"34";"4";"14";"15";"642";"663";"63"
"20:00";"24,3";"28";"34";"4";"13";"15";"631";"661";"61"
"21:00";"25,0";"29";"37";"5";"11";"14";"686";"665";"69"
"22:00";"21,2";"26";"31";"3";"13";"14";"664";"662";"64"
"23:00";"18,2";"26";"31";"3";"10";"14";"678";"659";"61"
"24:00";"13,6";"16";"18";"1";"23";"15";"431";"623";"40"
"wartość średnia";"18,9 (poz. dop.: 125 µg/m3)";"25";"32";"5";"12";"12";"617";"599";"52 (poz. dop.: 50 µg/m3)"
"minimum";"9,7";"16";"18";"1";"6";"8";"428";"489";"29"
"maksimum";"26,5";"34";"45";"9";"23";"15 (poz. doc.: 120 µg/m3)";"720";"669 (poz. dop.: 10000 µg/m3)";"78"